%YAML 1.1
%TAG !u! tag:unity3d.com,2011:
--- !u!1045 &1
EditorBuildSettings:
  m_ObjectHideFlags: 0
  serializedVersion: 2
  m_Scenes:
  - enabled: 0
    path: Assets/Scenes/Login.unity
    guid: c364b9e0cfb62fa41b031bce517d2054
  - enabled: 1
    path: Assets/Scenes/Login2.unity
    guid: c78679aed8a6b0f46a0acafcbdce2adb
  m_configObjects: {}
