%YAML 1.1
%TAG !u! tag:unity3d.com,2011:
--- !u!162 &1
EditorUserSettings:
  m_ObjectHideFlags: 0
  serializedVersion: 4
  m_ConfigSettings:
    RecentlyUsedScenePath-0:
      value: 22424703114646680e0b0227036c6c111b07142f1f2b233e2867083debf42d
      flags: 0
    RecentlyUsedScenePath-1:
      value: 224247031146466819011e275f105c1518120b650b292b35022b1736e1f4072cedf533a7f234362820
      flags: 0
    RecentlyUsedScenePath-2:
      value: 224247031146466819011e272031501403140c651f3c292228190f3ce6f5372cddc333e4e8093c393707a1290a371526
      flags: 0
    RecentlyUsedScenePath-3:
      value: 224247031146466819011e275f105c1518120b651f383439392c2e3bedf07a2decee22f0
      flags: 0
    RecentlyUsedScenePath-4:
      value: 22424703114646680e0b0227036c72111f19563f22213229
      flags: 0
    RecentlyUsedScenePath-5:
      value: 22424703114646680e0b0227036c6d15111e0b3e3e2768252320092a
      flags: 0
    RecentlyUsedScenePath-6:
      value: 2242470311464669080d15211c225d1c13572b293e272a3c6d1b1830f6af103defe879dae43f31392a4dd939162a083cf306471ef8021e12
      flags: 0
    RecentlyUsedScenePath-7:
      value: 22424703114646680e0b0227036c731f111e166439262f2434
      flags: 0
    RecentlyUsedScenePath-8:
      value: 22424703114646680e0b0227036c731f111e1678623d28393930
      flags: 0
    vcSharedLogLevel:
      value: 0d5e400f0650
      flags: 0
  m_VCAutomaticAdd: 1
  m_VCDebugCom: 0
  m_VCDebugCmd: 0
  m_VCDebugOut: 0
  m_SemanticMergeMode: 2
  m_VCShowFailedCheckout: 1
  m_VCOverwriteFailedCheckoutAssets: 1
  m_VCProjectOverlayIcons: 1
  m_VCHierarchyOverlayIcons: 1
  m_VCOtherOverlayIcons: 1
  m_VCAllowAsyncUpdate: 1
